 120 
23 117 92 58 43 87 58 88 38 99 90 105 73 51 13 7 81 45 99 37 23 44 102 46 111 84 83 23 55 44 33 84 52 73 96 58 14 26 41 49 48 4 84 11 79 72 83 114 119 102 108 28 93 31 68 27 69 112 29 58 101 55 26 105 115 68 113 86 60 101 115 41 95 19 10 98 31 59 87 88 111 29 91 26 25 45 25 67 107 100 87 29 90 14 69 21 52 6 77 37 49 120 84 19 12 13 104 100 82 44 5 50 108 66 95 9 5 34 115 14 
120 104 97 88 103 64 89 54 65 43 89 36 61 110 8 27 54 47 110 45 58 104 11 25 42 103 95 74 68 45 14 42 64 8 7 79 11 30 90 93 118 103 55 86 30 77 81 70 58 9 2 15 57 110 1 64 89 38 110 67 102 103 18 52 76 7 113 22 77 14 33 49 57 120 50 63 99 6 37 120 42 99 96 28 88 97 62 1 65 21 89 73 88 94 79 24 116 3 96 111 117 40 78 99 89 37 76 76 24 103 107 111 87 104 98 35 73 16 3 54 
29 89 26 48 98 2 44 27 86 90 104 116 99 50 100 85 63 47 59 110 13 72 57 63 96 2 61 42 85 100 66 106 40 50 83 65 55 32 18 93 68 70 35 98 22 24 49 110 72 111 95 24 6 77 31 79 33 80 23 108 110 19 93 66 43 79 107 69 95 7 6 96 89 54 9 55 37 104 76 66 88 81 85 32 34 21 70 109 43 94 11 108 44 84 120 105 100 4 114 1 86 89 24 119 116 103 16 39 86 110 46 105 86 59 98 101 101 27 111 64 
97 110 36 91 57 45 22 59 38 20 46 36 107 61 110 85 57 108 33 35 26 22 22 47 45 32 9 73 62 75 108 62 102 21 99 39 109 50 110 28 45 91 11 103 89 45 75 4 3 27 22 85 102 97 23 94 61 3 101 24 105 8 34 64 31 34 66 112 73 50 52 18 71 71 46 5 56 22 111 89 108 10 54 42 114 36 25 113 117 98 103 26 29 7 115 116 39 61 30 39 94 30 73 58 67 65 112 22 3 71 63 39 106 35 65 55 12 54 83 117 
75 96 30 24 84 111 117 108 100 85 72 89 108 20 114 82 106 64 100 64 16 13 35 115 33 30 99 89 18 50 86 19 40 26 67 76 13 99 62 14 11 39 19 100 84 85 74 48 25 71 66 39 34 6 27 64 108 113 67 41 27 80 2 2 117 43 81 119 12 90 109 13 113 45 45 89 21 92 49 58 21 99 113 89 89 69 56 78 11 109 105 103 84 119 113 30 55 74 111 78 7 64 74 9 87 54 71 5 72 66 92 119 53 47 30 108 62 80 37 72 
85 34 99 43 28 63 62 91 84 56 120 118 16 96 28 109 35 86 5 92 60 72 90 22 82 66 16 106 49 16 21 45 13 94 39 40 89 86 45 79 77 52 117 35 30 4 61 25 3 111 100 47 82 94 10 63 70 77 74 89 115 74 74 82 21 83 24 90 48 42 97 32 26 17 42 100 11 64 40 34 98 49 119 104 26 36 16 83 104 7 14 53 58 69 43 111 37 106 18 3 80 64 91 13 49 36 116 101 14 51 87 15 7 9 50 69 50 81 108 64 
28 36 55 113 9 37 28 25 51 95 94 4 29 86 93 106 22 82 13 56 63 82 104 56 83 47 109 43 107 91 1 17 53 112 100 15 70 112 29 42 115 54 70 10 13 79 9 64 65 16 48 100 37 10 6 84 17 53 17 63 60 88 90 93 29 72 101 103 74 50 59 103 101 54 111 115 61 54 62 22 59 71 108 3 26 28 87 113 43 102 84 98 43 13 5 111 47 2 57 110 67 62 33 115 66 117 10 105 115 62 70 20 9 9 5 7 92 71 58 3 
98 101 4 52 105 86 53 32 82 119 12 9 67 102 118 67 6 94 27 62 28 74 49 120 38 80 75 110 27 50 7 55 61 25 62 5 83 88 19 83 110 47 58 4 63 101 20 35 100 25 48 3 44 99 91 53 34 64 106 65 78 97 38 57 110 39 47 90 90 77 4 34 110 22 95 54 17 93 63 58 109 20 64 117 80 66 7 50 5 110 49 98 101 84 32 120 9 18 95 14 27 32 66 41 60 49 68 113 101 87 107 19 96 18 58 50 85 63 42 9 
83 18 23 69 46 102 8 80 60 25 90 19 69 91 99 41 63 19 89 10 101 74 27 6 66 26 115 100 40 98 40 91 41 75 75 75 74 99 120 96 29 73 21 41 63 72 76 120 102 77 78 45 13 24 77 71 85 4 69 21 76 97 41 2 12 100 57 83 77 7 60 54 104 5 107 72 7 71 45 25 43 14 1 37 47 5 48 112 42 97 101 101 119 28 43 73 13 39 109 59 40 93 17 42 54 93 70 35 51 104 11 9 112 112 113 36 23 66 107 110 
7 43 18 82 4 16 119 58 62 88 58 81 41 5 77 114 70 77 103 31 17 107 58 108 60 63 111 87 93 115 78 8 112 7 94 120 79 107 59 96 60 94 17 101 6 91 102 46 46 8 22 94 119 55 103 25 117 46 105 111 23 39 41 79 71 104 111 68 4 24 92 110 28 31 27 67 78 79 92 62 56 7 112 71 4 81 24 83 37 11 7 22 28 65 95 75 20 40 76 69 71 12 43 49 111 3 55 39 7 33 63 107 118 22 45 105 69 120 13 34 
53 38 19 89 57 39 115 76 37 67 106 83 4 113 51 5 93 5 115 75 119 1 48 92 69 72 80 33 23 24 100 12 43 95 27 94 29 25 111 3 22 31 60 6 38 52 97 93 4 40 29 103 109 6 97 13 51 5 101 106 87 46 32 55 5 40 86 56 77 69 113 105 55 82 29 25 81 69 115 95 112 120 24 49 5 53 37 68 26 99 100 30 36 117 112 106 60 100 59 104 65 74 46 114 42 84 88 23 71 86 117 57 88 28 14 71 47 7 72 62 
19 100 57 45 35 89 2 14 90 31 92 7 67 45 92 84 66 87 59 57 101 64 72 47 87 34 83 83 86 69 62 3 115 65 58 85 40 92 38 9 100 81 21 4 13 84 90 38 35 94 111 120 53 3 26 40 23 60 117 113 66 63 5 104 103 119 55 20 41 56 34 108 95 24 89 91 40 32 15 79 38 53 41 16 81 63 101 35 52 35 53 62 22 31 36 61 73 97 108 12 58 70 2 112 83 5 103 15 21 73 102 36 106 105 112 87 14 82 18 53 
95 19 113 67 82 113 65 16 57 23 23 39 24 22 30 86 74 58 39 2 39 6 120 64 92 98 94 7 68 58 52 23 72 81 86 19 105 71 21 75 27 112 74 12 24 82 42 118 80 107 41 30 28 92 94 40 31 71 103 105 16 31 77 15 25 58 48 43 41 4 88 67 21 45 41 19 54 95 41 83 115 84 58 69 16 90 69 46 18 12 3 44 19 76 43 6 119 40 2 19 54 111 110 28 16 56 51 80 22 69 105 119 73 52 86 88 1 101 105 10 
93 97 5 23 32 69 97 116 40 1 118 60 38 93 64 76 50 87 98 29 109 50 29 28 93 83 48 48 74 81 40 62 116 94 67 54 40 47 103 9 77 50 12 35 100 105 66 55 105 28 44 117 47 3 46 117 73 17 34 23 58 90 86 57 8 78 12 83 62 85 2 96 39 61 69 47 78 47 8 11 105 79 95 46 80 53 105 117 35 65 61 84 107 43 116 56 115 74 11 111 28 58 51 88 99 39 117 73 24 35 41 77 33 32 86 56 3 5 112 25 
1 86 74 56 108 79 17 83 1 57 104 74 20 119 105 83 71 120 36 83 78 46 90 110 58 105 80 79 5 62 50 98 116 71 63 116 38 72 54 6 15 71 74 82 30 101 96 85 11 87 108 45 115 34 99 50 47 108 4 101 65 107 99 23 48 17 65 78 88 117 28 18 86 110 55 58 86 117 32 119 95 92 65 38 102 55 27 43 52 37 14 44 74 62 36 108 64 52 45 109 60 51 118 37 87 115 43 101 3 80 117 117 24 60 45 16 96 23 91 77 
65 80 11 4 76 9 74 86 75 73 15 11 87 46 39 63 69 100 25 4 112 60 35 33 99 41 112 49 6 73 46 106 20 15 5 10 25 69 25 75 113 108 32 60 35 17 3 64 29 25 94 94 53 49 23 88 23 97 19 80 75 77 21 50 33 47 112 28 30 43 14 95 93 72 82 46 102 96 120 90 24 42 88 32 100 77 38 45 101 59 44 47 36 7 45 30 43 92 74 75 109 10 7 74 51 10 76 115 97 34 35 35 53 10 74 15 78 92 113 52 
41 6 31 2 75 56 41 14 50 15 101 106 73 90 45 82 24 98 94 46 42 45 12 119 56 100 105 54 82 85 117 43 31 29 115 111 107 34 71 52 115 111 29 7 4 81 5 94 52 39 21 92 49 78 89 45 37 70 101 92 3 83 116 95 23 106 113 55 24 93 94 41 2 22 43 80 18 61 82 110 58 28 30 21 84 64 85 81 61 109 88 9 120 34 14 69 87 105 11 109 45 3 84 81 16 62 72 82 20 28 69 32 84 26 101 76 83 33 71 99 
13 115 81 98 26 45 31 91 60 24 84 63 4 112 33 116 47 13 33 64 70 19 74 30 57 6 19 14 76 114 18 57 82 54 80 107 65 22 103 71 18 110 50 61 65 30 70 55 41 88 70 11 16 109 42 55 23 70 98 65 63 55 35 115 39 83 72 79 13 32 6 65 39 19 35 1 5 65 100 12 12 86 75 81 102 53 116 85 32 89 98 96 17 64 3 38 75 68 32 110 39 59 69 30 82 17 95 16 52 24 46 63 31 120 44 9 1 8 34 1 
14 63 65 85 2 88 66 37 85 64 41 111 102 8 101 71 111 18 88 112 48 54 88 12 115 9 83 63 20 46 94 68 24 2 95 8 54 54 20 46 25 76 47 47 74 63 105 75 88 69 43 52 43 41 61 104 99 1 43 85 15 42 67 96 114 46 87 73 62 108 40 82 32 57 105 59 98 87 44 74 100 101 33 71 63 91 60 70 2 56 3 93 117 29 45 39 103 102 110 3 6 15 77 10 66 32 17 99 111 103 76 6 115 59 60 40 102 50 73 85 
26 83 27 37 6 78 73 117 49 88 37 115 78 119 102 16 29 93 51 58 80 53 75 70 101 15 52 62 10 100 108 49 73 57 49 44 117 62 36 93 13 53 30 1 81 26 97 13 4 42 103 116 3 38 115 12 30 50 102 117 86 47 68 65 106 27 106 53 74 12 13 113 55 52 57 87 31 37 66 115 16 110 55 33 32 78 103 82 116 18 114 59 1 33 115 83 33 107 105 59 15 117 42 110 2 31 14 75 35 77 29 44 33 118 18 99 111 116 26 74 
94 17 35 94 119 61 66 14 61 5 58 110 109 9 118 40 39 66 82 18 54 47 20 85 84 77 86 60 93 8 66 46 60 38 100 66 55 112 114 95 100 94 86 71 76 77 71 3 113 2 10 85 19 69 92 6 18 67 103 78 107 16 3 81 114 81 113 50 117 29 112 48 3 100 54 97 29 28 50 5 55 53 73 82 72 4 77 21 111 115 20 5 69 76 54 46 116 34 43 117 104 110 48 39 42 55 57 42 112 90 39 75 57 82 116 45 89 51 59 69 
95 81 12 112 52 47 31 72 49 36 24 92 26 38 46 77 74 62 53 51 23 53 100 26 71 82 26 7 36 32 22 50 8 12 4 2 37 66 64 77 18 114 1 36 107 70 8 18 16 55 112 85 90 100 12 57 54 56 101 114 93 104 87 73 68 26 26 54 39 68 2 119 8 65 83 2 61 86 94 39 88 35 45 40 72 100 111 30 82 15 83 29 50 47 31 88 75 69 95 98 103 31 7 43 8 56 67 37 56 64 119 45 90 73 15 104 2 78 87 72 
116 100 3 5 30 98 9 11 11 36 96 22 69 88 81 79 9 22 35 66 108 80 35 23 5 70 49 42 64 98 72 94 116 101 57 54 7 114 70 81 41 13 20 6 45 55 62 120 2 28 120 5 90 74 52 45 120 115 42 31 114 24 30 32 44 59 10 60 47 52 43 22 30 35 86 47 53 25 103 84 101 28 18 6 83 79 36 27 60 8 115 64 38 120 6 86 107 23 32 21 69 88 13 4 27 86 17 74 28 12 76 32 62 108 72 94 20 113 111 90 
114 98 17 69 118 90 118 119 30 50 101 50 83 17 81 39 20 98 7 70 55 69 50 52 3 119 75 49 50 50 56 80 33 83 82 26 65 35 83 22 22 89 1 14 71 93 5 104 62 76 113 75 10 46 50 14 43 44 104 7 48 104 27 45 110 90 34 91 101 97 56 66 53 98 44 16 106 72 41 21 26 90 21 61 44 77 57 53 63 116 44 96 105 109 80 120 98 75 60 114 2 98 27 69 97 42 107 31 114 46 102 57 87 42 4 56 98 91 12 90 
67 96 67 79 42 119 45 42 54 66 98 119 55 17 62 114 7 18 117 30 113 88 116 81 2 23 80 21 24 59 48 68 60 114 30 74 14 45 8 115 97 37 69 66 100 115 67 66 118 11 45 98 92 11 29 48 70 74 17 91 68 111 20 76 49 70 80 73 24 20 75 5 45 34 4 87 6 90 23 56 50 17 29 74 12 85 44 118 53 64 47 99 26 54 97 106 43 114 49 63 52 36 7 64 22 50 38 10 37 42 106 119 22 38 16 32 47 83 21 54 
13 52 30 47 87 98 45 55 52 45 56 25 45 61 62 8 90 30 55 77 7 109 93 75 16 89 118 40 102 113 76 63 74 47 53 116 112 10 67 86 89 31 26 53 45 48 34 116 15 107 46 105 3 107 75 6 14 73 14 40 54 26 103 80 64 5 70 58 112 78 84 23 50 9 54 117 64 44 97 33 105 3 108 83 22 14 100 21 4 21 32 88 111 12 12 119 111 75 21 42 13 27 93 78 69 47 38 62 88 79 78 89 10 109 84 57 96 85 55 13 
91 96 63 117 94 117 91 43 44 112 74 50 10 103 48 5 46 100 46 85 72 41 64 95 39 48 46 6 47 17 21 18 26 109 49 52 36 11 43 36 117 43 23 118 91 112 99 63 120 15 71 20 67 37 36 71 88 109 51 85 88 23 37 98 39 119 96 51 62 61 69 8 43 103 9 98 37 18 114 55 74 7 33 52 91 35 115 117 109 52 23 21 105 118 101 98 3 77 119 31 26 12 28 74 78 116 40 14 18 65 38 49 51 60 19 5 17 100 76 61 
1 68 115 77 16 117 44 9 34 62 77 19 119 71 33 72 60 97 111 67 120 56 12 18 77 47 45 52 49 38 72 53 82 53 105 89 10 110 17 83 7 42 98 38 19 63 97 45 9 8 85 31 96 74 14 77 60 93 50 6 4 115 35 87 13 97 118 70 69 112 7 1 41 115 118 106 99 33 8 120 6 3 49 93 95 2 101 9 30 89 23 30 29 94 30 5 116 117 26 84 87 54 76 66 18 29 117 115 102 6 52 29 75 64 79 18 57 119 42 97 
17 58 118 44 3 79 21 89 55 100 49 12 108 27 6 4 58 20 3 70 104 103 50 69 60 2 119 102 71 28 49 51 56 32 58 80 19 33 109 108 37 102 31 28 90 40 14 47 47 94 92 92 34 69 81 19 110 57 96 97 21 88 46 87 60 49 90 46 20 20 52 34 90 8 46 2 21 25 35 93 110 26 25 57 29 106 3 104 73 61 47 48 62 99 36 81 68 42 30 84 42 80 104 44 64 13 34 95 43 71 78 61 16 82 92 73 82 34 46 34 
99 33 116 57 22 20 98 58 118 68 101 92 91 115 56 40 111 23 40 46 88 65 113 16 14 56 28 3 36 15 102 81 43 62 73 37 117 89 30 63 10 78 92 79 26 6 76 8 84 9 99 7 1 57 63 48 115 110 96 67 65 70 77 5 58 66 33 78 120 103 64 49 29 29 78 51 40 93 109 17 19 16 110 63 18 13 52 31 95 58 5 116 77 77 14 7 1 32 101 84 72 21 31 111 97 9 63 8 54 95 118 103 14 36 81 117 47 59 37 102 
87 83 111 117 71 16 93 14 31 19 7 12 48 77 77 10 21 115 96 63 83 70 81 23 107 10 6 2 30 3 54 64 110 15 99 32 16 86 32 38 7 33 70 115 33 69 67 11 90 92 34 84 115 58 114 101 41 70 106 87 57 50 96 104 62 56 57 55 97 105 45 52 93 29 112 99 47 71 61 42 114 58 20 55 107 75 108 26 98 57 108 78 13 84 111 73 84 56 3 17 107 108 3 118 31 32 66 85 18 77 77 56 25 16 6 73 110 118 95 48 
23 120 87 92 53 30 6 86 80 115 1 101 52 114 33 20 108 18 89 8 29 2 90 33 116 102 108 108 26 44 119 25 103 118 104 61 6 91 4 45 75 103 42 8 31 118 41 105 73 30 87 99 73 39 31 93 84 99 10 7 89 48 4 16 87 101 89 93 92 30 44 112 94 17 42 29 114 94 67 87 93 62 71 41 56 60 29 23 106 41 44 91 25 65 70 47 26 66 75 109 80 11 23 117 47 105 87 92 102 119 51 4 41 56 39 53 35 98 47 114 
2 90 107 72 13 10 55 109 31 81 86 84 16 113 36 32 85 25 68 118 10 6 68 97 91 24 98 47 99 104 10 82 73 57 24 21 81 16 71 33 38 42 10 48 93 99 11 96 118 44 43 25 63 29 90 92 118 48 100 112 10 68 35 26 22 5 27 2 112 77 9 99 42 36 84 86 60 8 78 90 63 78 118 81 99 80 105 39 58 40 4 27 41 22 78 70 34 4 34 70 79 45 17 70 102 98 49 97 54 42 80 60 74 51 83 73 47 31 1 73 
31 98 117 111 16 34 52 3 57 14 11 39 47 111 20 32 97 94 116 34 8 78 58 77 69 19 19 20 48 94 40 54 98 33 11 12 32 93 67 117 39 4 91 75 54 88 78 36 90 77 1 25 3 36 10 116 90 45 50 55 97 101 21 45 22 84 87 36 99 108 69 9 51 74 91 100 109 6 30 99 84 51 7 10 35 114 11 56 56 84 110 66 37 101 1 74 107 78 10 61 16 27 81 22 46 91 119 27 72 114 91 81 25 89 65 108 9 69 93 41 
12 98 58 55 46 3 54 13 119 35 36 21 96 75 83 40 99 54 87 7 17 42 12 46 41 94 92 7 105 57 4 119 3 60 40 20 32 58 29 59 8 40 44 25 83 41 13 95 45 89 75 63 109 119 43 22 80 38 112 54 51 35 50 3 77 70 9 71 116 14 35 13 24 11 22 114 113 109 5 120 83 92 90 94 3 54 89 4 34 81 16 48 91 118 13 28 43 1 86 75 32 77 75 1 118 53 65 24 115 24 28 75 52 89 64 113 49 12 72 68 
95 94 41 82 19 101 113 77 71 93 78 10 82 77 51 112 65 101 13 28 49 52 12 64 36 116 100 7 87 23 52 18 40 18 53 65 19 58 45 56 96 114 78 91 64 58 119 40 61 41 54 90 25 16 80 93 118 96 103 17 49 90 106 98 65 101 22 79 71 104 63 13 50 86 107 47 106 48 95 44 3 65 4 109 68 20 74 76 24 84 28 18 79 82 86 41 68 62 27 21 63 30 17 24 113 35 112 81 67 50 50 107 91 78 24 41 113 86 33 68 
81 23 117 2 54 81 103 20 11 49 13 83 37 29 73 67 101 120 89 30 20 51 74 57 107 53 24 13 8 35 70 31 19 105 56 73 60 33 43 56 35 39 33 30 67 94 114 25 75 28 79 86 9 14 30 44 15 30 18 88 112 91 20 70 49 52 62 89 39 102 50 13 105 81 5 42 17 14 102 46 98 56 49 75 49 3 42 65 78 3 9 24 96 32 29 75 25 76 34 25 21 70 44 78 8 48 76 114 24 101 74 61 114 30 15 57 8 60 8 81 
26 31 106 113 23 41 85 79 42 37 43 87 10 60 84 44 71 8 18 54 18 104 23 28 69 25 39 88 85 88 84 16 6 4 46 99 109 95 10 21 76 46 83 118 101 54 4 28 84 95 70 85 80 53 22 45 31 6 110 97 91 87 84 119 109 4 31 24 119 94 63 104 107 101 77 74 2 13 15 113 20 33 100 6 82 16 97 119 70 67 23 7 50 40 76 4 9 58 12 102 92 96 101 74 115 93 114 26 112 119 105 102 32 96 80 28 49 101 115 38 
17 71 101 96 77 26 28 90 40 25 46 3 100 80 57 64 83 38 90 40 82 50 39 7 95 27 91 57 37 95 16 97 66 13 114 38 19 106 44 37 118 72 55 49 4 61 62 110 116 84 67 54 14 66 79 43 7 118 81 54 14 66 60 13 53 13 117 97 54 77 2 73 103 77 71 20 59 96 82 31 80 30 36 3 104 46 24 27 108 12 102 34 101 119 101 9 54 83 95 57 94 79 41 30 34 106 111 106 70 42 41 33 82 39 34 55 37 88 49 103 
78 20 76 67 91 40 72 92 30 5 77 51 20 110 74 61 13 56 60 75 117 33 61 103 114 50 23 14 73 30 107 19 21 41 31 35 46 13 103 53 60 49 20 91 47 26 34 48 85 10 28 107 68 4 98 17 48 6 14 35 83 49 48 86 102 46 101 119 63 24 39 67 109 14 48 60 2 25 106 74 115 5 114 78 66 48 68 51 117 102 66 30 27 60 97 102 67 75 48 69 29 94 44 95 20 71 92 77 43 41 17 69 32 23 43 38 45 60 81 27 
76 62 40 26 80 79 18 67 86 115 100 53 104 49 117 1 1 36 9 15 60 111 107 44 65 119 6 90 89 91 87 33 45 99 90 41 29 102 71 65 29 106 112 52 120 109 95 33 21 99 64 101 34 9 16 97 25 55 62 34 76 114 110 59 21 75 52 92 111 103 53 27 69 54 47 102 60 56 12 105 49 96 88 78 40 90 118 50 25 23 17 82 36 20 12 120 7 104 51 67 56 35 17 87 79 36 94 53 59 72 98 34 57 115 80 40 3 85 86 49 
3 44 23 21 29 100 93 16 6 65 20 89 45 72 35 102 116 78 68 50 44 17 61 22 21 10 84 80 61 70 88 85 73 90 100 53 29 84 7 52 23 90 56 36 113 6 73 15 58 37 13 50 94 32 45 55 37 8 72 41 83 95 72 111 56 81 13 73 41 102 89 74 65 78 66 20 23 89 116 94 86 76 77 68 80 54 30 24 81 103 64 3 30 72 119 48 72 6 117 33 100 82 27 77 21 60 1 27 115 72 46 89 80 70 38 50 24 63 76 84 
15 60 5 40 77 13 89 19 65 44 29 57 37 113 67 78 21 74 100 39 96 46 120 76 105 83 18 119 102 77 76 54 59 12 8 99 7 27 99 112 38 84 79 85 72 83 54 117 79 48 50 30 8 81 13 96 47 8 8 91 40 32 3 18 77 102 112 3 58 84 43 19 58 84 98 108 96 38 27 21 88 40 63 90 104 106 18 33 92 48 106 77 76 27 25 83 55 1 43 49 78 14 70 117 15 70 29 56 35 65 103 120 66 117 40 63 8 31 84 96 
11 113 35 2 120 76 27 23 101 113 56 48 9 104 109 27 97 19 37 31 84 49 116 49 30 114 46 28 37 102 55 98 114 66 106 85 115 116 93 115 82 7 89 45 2 22 102 54 78 97 38 69 112 37 98 66 120 119 76 56 120 68 34 56 55 77 16 119 34 1 21 58 111 105 9 80 63 17 11 108 31 59 53 21 17 112 35 96 120 106 50 96 36 16 21 74 28 25 51 74 3 106 47 60 60 115 92 68 47 73 54 64 92 90 90 33 93 38 112 86 
51 59 55 88 19 12 33 96 50 101 2 92 61 3 5 109 45 118 57 37 23 38 106 119 99 83 24 64 63 99 112 8 61 92 105 89 32 101 101 34 81 82 7 9 35 27 44 101 61 81 32 11 31 96 57 77 72 3 76 9 42 17 11 98 57 88 22 28 12 69 37 3 20 57 72 77 29 69 31 74 108 103 71 6 83 53 58 66 93 2 95 56 58 34 105 18 69 61 33 70 105 39 27 83 71 63 69 1 56 61 29 91 65 50 36 34 42 52 32 56 
63 61 38 87 50 72 47 53 7 31 53 15 73 116 34 76 17 88 96 23 39 94 60 120 56 40 75 101 104 96 42 104 70 113 85 40 108 92 45 32 25 31 44 15 6 23 41 113 65 66 120 75 58 59 100 32 84 79 24 89 78 50 47 111 20 38 47 27 118 93 24 50 38 101 14 97 88 61 43 44 3 4 94 27 100 5 84 84 36 61 3 112 101 113 24 60 2 27 80 94 112 116 109 104 84 51 19 46 114 34 56 48 41 97 76 41 67 22 23 76 
39 12 63 38 46 110 85 22 48 99 87 100 38 118 18 98 81 60 41 115 92 83 110 25 91 9 114 97 10 118 4 73 104 86 58 93 116 79 119 30 9 103 78 81 114 99 27 80 70 78 109 78 1 87 15 82 6 74 1 105 16 102 74 44 1 86 12 13 5 42 34 82 41 78 50 6 112 96 10 119 93 62 59 58 32 27 74 48 62 94 117 31 80 60 112 104 105 65 113 11 102 118 112 20 119 11 106 18 73 66 38 73 75 101 15 55 107 103 11 78 
117 63 109 17 111 120 79 31 71 86 119 55 44 47 55 10 44 79 96 75 72 6 16 61 63 50 25 63 2 13 42 51 90 41 91 18 48 87 9 106 36 99 71 104 42 26 58 65 34 49 100 70 95 70 50 108 105 17 67 71 63 35 45 49 82 41 45 42 104 47 16 36 20 67 62 115 39 114 98 38 12 117 60 68 39 96 80 24 10 117 44 62 8 67 32 2 16 22 58 34 44 5 47 34 44 80 107 38 69 108 43 111 83 68 27 72 76 76 3 1 
71 116 26 11 9 105 32 40 118 15 84 111 22 5 10 94 10 117 30 56 19 24 23 67 51 116 41 16 46 45 35 18 102 27 11 11 86 7 92 20 73 118 65 88 106 10 6 117 64 47 62 108 106 98 62 15 25 66 6 10 63 76 106 76 39 115 44 28 115 87 34 3 112 22 50 69 37 24 98 26 111 109 1 8 42 66 81 28 55 31 53 98 34 42 105 82 58 52 94 22 61 40 59 14 44 83 73 97 65 89 60 11 62 71 51 43 107 3 19 23 
12 73 62 18 14 95 117 88 101 2 60 67 103 22 23 42 102 9 38 27 114 47 106 44 65 70 103 14 76 81 71 1 69 86 18 44 94 67 64 47 107 16 7 112 29 45 40 41 101 56 72 9 19 18 47 4 34 13 96 78 54 96 90 50 101 29 13 23 35 67 65 61 21 35 46 101 82 102 2 50 36 72 52 9 7 44 11 31 3 56 15 25 118 59 65 99 47 55 8 96 109 7 76 12 27 11 97 91 115 48 55 71 86 92 81 43 97 84 82 52 
7 4 12 120 79 83 1 43 25 23 67 99 22 75 10 50 73 23 3 15 73 72 3 71 10 100 7 67 101 17 60 18 85 31 45 23 78 19 41 101 95 103 4 43 110 21 96 107 107 42 18 39 114 107 29 102 111 30 29 86 100 2 64 24 37 83 1 106 108 59 106 97 21 54 99 113 23 113 40 20 81 44 81 83 7 62 90 59 33 8 88 44 90 117 48 69 24 113 52 19 13 12 11 58 108 65 19 67 40 59 107 11 66 20 58 63 92 69 42 42 
80 104 116 56 96 119 45 56 90 83 57 3 91 28 71 98 1 32 17 79 114 85 35 86 17 86 102 9 84 117 116 116 20 103 29 53 57 45 43 34 40 86 43 55 10 117 15 53 10 44 95 16 109 99 2 34 12 10 52 63 26 53 80 70 44 96 91 21 64 91 107 76 42 103 82 46 12 27 70 83 25 16 119 42 42 45 23 31 7 48 36 6 54 67 82 17 41 3 74 118 118 12 20 37 24 6 56 82 69 86 2 75 117 55 64 12 80 29 67 36 
83 104 106 89 39 86 42 35 85 56 95 78 14 84 1 40 39 35 12 23 5 120 70 117 61 96 11 78 63 76 63 32 83 96 3 80 59 16 21 45 72 75 19 50 57 21 106 110 18 79 42 83 97 57 73 25 52 23 28 85 104 9 14 27 89 67 115 100 48 105 95 54 77 68 57 116 105 55 109 57 17 38 47 110 112 42 65 57 110 31 50 53 105 53 4 53 69 70 35 24 29 97 117 33 120 114 47 53 47 101 98 75 92 60 96 68 31 81 118 75 
72 22 119 56 3 108 69 47 108 49 5 83 118 77 77 36 41 2 56 52 46 110 1 23 62 64 63 33 46 38 80 28 82 90 23 102 5 118 85 89 58 77 73 22 43 111 102 84 103 69 14 119 54 75 62 24 108 96 109 79 81 118 57 66 101 36 19 14 109 64 4 44 9 116 93 60 105 1 95 41 30 2 81 74 57 26 120 105 52 93 82 30 30 23 51 66 36 93 108 29 108 86 95 43 55 17 87 49 94 11 98 93 89 36 44 32 71 34 94 79 
77 1 118 68 3 38 81 108 94 80 41 80 64 6 103 119 50 120 3 78 14 24 48 35 6 118 34 40 26 88 97 21 10 16 38 7 78 63 63 118 63 9 32 31 72 41 93 92 92 56 78 108 80 21 19 103 54 22 51 84 2 99 81 33 40 102 71 17 67 101 49 103 35 78 46 44 19 92 82 42 40 64 113 97 120 83 102 18 82 73 82 79 113 13 74 118 115 113 14 21 112 12 110 39 43 78 31 93 63 96 48 79 114 34 77 114 53 32 46 67 
6 64 100 117 23 61 60 67 68 33 68 57 89 116 92 102 60 105 46 87 36 32 43 93 58 102 107 106 10 26 96 19 40 99 66 106 28 28 101 53 92 95 3 37 85 115 99 75 4 89 13 110 39 36 78 119 95 57 25 11 94 87 33 89 103 109 46 6 96 101 96 35 22 62 115 109 39 45 11 65 94 25 84 59 87 44 1 100 92 56 61 3 19 91 17 95 53 97 95 72 109 27 20 114 56 64 29 54 101 47 84 22 8 101 35 7 106 33 94 118 
37 26 13 12 72 18 103 61 52 14 13 13 97 72 46 58 34 3 12 6 33 117 114 103 91 92 111 81 53 18 119 44 40 20 82 79 31 65 3 95 82 120 69 73 6 59 63 17 35 29 24 96 51 113 31 67 24 84 63 101 40 53 33 10 94 106 41 2 8 48 48 29 70 25 36 70 50 93 37 48 24 62 67 89 101 112 23 118 36 111 110 62 87 111 111 54 73 118 65 53 84 5 102 18 1 9 37 117 117 78 11 110 84 31 73 102 100 49 55 64 
53 38 95 15 9 88 105 119 91 18 20 16 73 70 50 64 44 60 59 21 8 77 105 68 64 115 18 9 59 80 108 40 64 37 92 64 11 34 82 51 27 21 56 32 2 120 32 12 71 116 79 2 34 72 36 50 50 21 48 37 80 100 61 21 2 111 39 6 89 42 69 80 120 108 11 116 107 7 83 31 13 65 58 98 57 85 77 90 14 67 114 48 117 102 49 70 101 93 101 55 35 3 46 103 12 33 10 37 120 46 19 15 105 104 64 37 93 57 99 5 
48 99 93 18 95 60 104 93 54 4 70 119 28 89 73 39 66 36 105 38 101 49 29 63 43 18 35 84 70 88 49 116 7 94 32 38 32 46 35 80 100 54 87 38 41 29 45 72 47 8 35 117 85 51 82 117 65 24 13 78 66 78 71 51 106 37 22 72 37 114 29 106 57 45 37 69 81 73 56 49 81 89 63 25 76 61 41 84 111 45 27 32 72 87 27 59 82 42 82 80 72 54 48 91 47 85 33 42 62 30 35 85 59 69 24 110 51 73 29 75 
64 77 94 14 110 93 94 55 37 115 37 16 69 118 72 36 12 114 55 82 55 108 109 76 111 105 36 112 81 55 62 46 106 64 97 25 116 114 48 100 72 27 120 66 54 56 97 32 77 19 71 7 40 75 119 64 8 8 25 6 85 79 56 38 4 17 27 2 56 87 100 36 50 43 12 55 25 77 17 10 68 120 33 52 28 98 108 114 7 73 84 2 77 73 64 55 65 20 101 56 48 110 58 92 77 74 37 38 68 10 103 106 114 82 3 25 65 23 72 77 
3 9 113 63 41 67 33 65 58 105 42 111 2 77 49 40 20 42 90 67 6 25 41 62 46 3 27 26 106 96 84 68 14 11 58 29 55 68 50 2 54 12 42 27 101 45 34 37 109 118 110 67 111 28 15 63 114 48 21 94 20 2 56 106 61 45 33 92 46 64 96 3 67 32 38 78 78 109 54 24 94 3 84 78 28 27 107 19 34 92 5 79 66 66 95 113 46 87 79 79 35 22 52 51 52 46 76 112 60 43 103 87 88 6 47 14 92 9 55 45 
62 81 107 6 56 51 26 38 112 120 42 51 15 8 54 92 25 1 66 31 84 20 15 96 86 86 78 24 11 60 92 97 34 27 83 75 75 1 110 93 46 19 58 64 68 68 14 37 65 38 26 32 99 13 60 65 86 93 67 12 67 4 112 101 91 15 34 61 116 119 86 35 114 26 66 48 12 107 103 120 73 4 83 8 87 35 104 33 85 3 66 113 30 7 21 63 74 77 48 31 88 47 9 3 108 35 55 49 115 9 28 62 11 57 108 23 62 17 92 63 
84 44 57 101 5 93 106 74 8 76 82 109 51 65 10 45 56 67 60 104 15 118 112 25 24 63 81 77 68 51 43 2 85 93 70 101 67 24 68 71 96 62 78 112 94 16 60 108 115 33 42 8 45 37 96 19 78 78 86 105 64 27 55 82 92 36 58 114 24 25 108 74 6 37 86 31 102 18 82 48 77 95 10 28 28 68 98 16 81 108 78 95 36 114 63 80 112 8 23 15 16 56 80 68 68 70 20 33 109 112 81 103 101 62 20 65 119 14 12 73 
3 109 115 92 8 43 77 36 33 34 16 33 33 60 97 2 71 62 25 97 62 16 16 55 104 114 52 18 87 15 110 92 116 103 4 71 31 61 65 15 104 28 10 31 39 78 50 30 110 102 111 19 59 89 43 72 9 80 18 15 29 73 78 57 33 66 19 66 69 97 73 106 97 34 29 108 89 9 85 29 99 107 33 7 112 8 36 105 98 38 112 63 17 47 104 40 30 40 59 43 120 118 102 64 26 104 23 115 89 94 5 83 13 66 17 85 22 91 64 10 
54 75 98 41 93 16 27 74 86 17 13 21 92 10 110 25 26 61 108 21 40 72 111 117 12 36 32 92 104 93 35 28 45 48 26 63 34 40 68 40 118 59 113 77 44 60 13 34 114 96 86 25 30 21 119 22 77 22 36 38 104 52 53 62 119 64 111 117 64 37 102 18 108 58 101 100 70 114 44 35 70 51 48 84 3 119 5 15 8 102 94 112 40 40 58 42 86 119 19 67 23 24 21 59 100 94 64 33 52 55 32 2 34 16 12 27 114 43 118 35 
30 60 15 73 81 55 68 42 118 97 58 8 81 118 94 53 78 77 78 114 28 49 2 48 30 90 40 39 9 49 107 106 69 111 80 97 71 8 58 39 28 14 107 33 20 55 9 96 89 106 83 37 63 59 59 75 83 23 4 57 25 14 117 96 114 59 72 54 2 94 79 36 113 12 89 108 74 30 68 11 3 110 8 28 19 88 21 6 99 54 61 16 113 33 69 79 92 17 3 108 20 65 20 58 71 5 96 72 90 100 111 61 108 86 9 9 27 58 25 31 
106 69 56 83 75 61 21 92 117 48 112 117 62 73 85 37 80 36 25 120 5 58 115 116 39 104 106 74 10 51 46 2 16 87 120 59 44 31 49 17 2 45 25 115 97 70 77 48 82 36 62 82 90 38 74 10 90 58 71 15 42 68 13 37 100 14 71 100 7 97 5 59 101 87 73 68 7 46 115 71 21 68 78 19 104 33 118 22 16 36 17 35 112 29 54 38 33 6 15 118 41 33 119 30 112 88 97 118 66 32 34 110 81 81 111 111 23 15 36 33 
115 72 49 33 118 15 13 50 91 109 102 16 75 69 35 63 34 26 43 102 96 96 108 73 90 35 7 50 32 57 111 12 29 33 16 83 112 25 51 25 72 17 53 54 11 58 18 18 48 71 83 29 77 109 84 13 116 21 18 120 47 90 44 8 58 91 113 72 55 97 47 58 15 34 113 7 81 71 106 79 37 102 18 84 15 98 31 7 111 17 83 5 78 24 35 39 86 12 46 61 62 69 75 27 83 114 95 1 12 38 116 34 65 68 114 26 72 11 92 36 
26 11 69 98 106 110 57 84 60 107 103 49 40 58 47 77 78 100 97 39 99 108 2 114 19 107 25 29 80 75 6 107 57 1 9 69 83 96 103 88 105 39 82 83 48 102 71 16 47 84 27 118 12 51 94 37 88 65 112 81 23 77 71 10 39 114 101 63 55 72 62 79 53 21 7 31 55 36 93 35 37 48 77 109 111 96 20 84 41 99 2 104 38 81 60 39 52 5 113 97 39 105 79 51 34 93 9 52 63 96 16 113 96 103 8 118 10 89 22 19 
71 75 29 74 52 74 65 34 54 62 99 64 22 4 76 82 120 5 86 118 107 77 58 9 36 9 107 5 11 99 3 54 72 48 35 23 26 80 12 97 9 78 38 92 85 35 114 93 88 59 102 19 13 53 36 111 31 16 107 103 32 51 1 2 120 23 88 35 71 42 28 118 120 99 78 61 40 84 28 91 14 22 29 77 117 17 83 107 14 22 30 21 81 92 69 1 112 73 2 11 91 65 72 7 113 58 53 88 31 16 32 46 37 94 65 68 70 2 48 72 
42 58 62 83 18 106 39 35 9 103 60 24 21 50 64 61 76 18 85 43 55 38 115 14 117 63 35 65 33 82 99 105 55 40 79 6 35 80 1 50 71 84 50 84 69 60 118 2 97 52 101 30 79 93 45 14 36 26 112 72 80 6 119 88 112 16 1 101 55 96 58 80 23 60 107 13 114 77 67 54 29 3 76 29 44 105 85 30 120 30 94 30 75 48 68 50 35 42 37 75 95 99 94 118 9 20 115 48 68 120 59 108 85 80 31 12 100 98 36 10 
35 71 8 54 36 37 104 42 10 64 83 108 21 10 8 7 117 27 62 1 112 10 81 76 119 25 35 67 11 73 75 108 107 95 106 71 11 82 101 21 102 39 79 15 34 93 75 31 16 91 45 97 103 87 75 19 109 69 84 37 112 12 37 79 9 117 29 65 83 94 10 86 19 50 15 86 65 109 109 79 37 50 27 18 47 10 60 17 34 90 100 118 111 118 13 5 70 101 1 75 2 21 99 4 71 72 47 3 17 38 58 4 92 55 77 97 102 76 13 59 
114 97 52 21 47 90 112 53 86 80 117 71 35 90 114 42 89 88 16 46 4 81 11 105 36 83 13 5 100 24 108 37 93 109 76 50 52 88 97 111 32 38 97 80 117 90 115 16 28 91 54 6 114 58 69 44 26 63 118 64 22 111 114 105 74 33 115 26 106 12 112 36 64 27 9 62 97 86 1 3 82 83 95 30 46 8 114 47 40 111 63 53 3 32 119 84 44 26 38 2 47 101 75 4 44 49 25 33 94 66 109 105 89 77 4 19 70 69 42 66 
118 53 105 43 89 5 46 60 112 14 3 27 39 93 41 41 11 55 67 63 22 53 10 89 8 93 50 109 69 119 8 15 4 27 8 41 118 43 16 20 27 53 93 24 102 64 84 13 69 65 44 34 63 114 73 108 41 41 70 70 18 15 63 16 99 116 5 108 80 81 108 99 21 89 78 29 107 73 52 112 23 51 88 5 75 113 25 95 29 82 69 26 102 75 35 32 32 116 72 120 116 94 115 94 89 76 16 74 14 35 52 15 99 50 83 89 64 72 28 11 
59 24 96 95 120 112 8 111 89 10 55 6 42 95 28 67 106 97 11 65 119 87 86 82 107 51 16 92 70 56 83 81 96 46 10 31 82 44 83 27 19 92 25 111 60 16 37 104 70 5 94 21 87 102 56 40 38 114 102 116 45 46 26 74 110 95 74 61 90 5 20 116 116 5 42 112 51 69 47 78 100 24 102 79 37 55 118 56 62 4 65 76 92 64 11 21 70 10 1 47 97 109 73 81 11 61 30 103 42 26 39 3 77 25 41 6 57 21 85 25 
56 39 91 63 106 51 29 101 70 117 29 85 30 89 36 68 1 40 23 111 94 58 72 38 6 10 83 46 90 52 28 45 75 5 119 101 14 108 26 36 83 31 82 25 26 18 76 67 82 35 40 97 62 14 43 7 11 109 85 76 50 61 36 60 117 118 70 29 16 15 27 52 85 98 13 72 74 68 20 32 74 86 86 78 69 24 43 120 98 102 73 89 61 59 91 95 3 62 94 100 101 70 13 39 54 74 81 66 16 31 71 4 98 61 36 4 33 18 3 9 
38 19 119 71 100 39 76 22 93 72 87 21 54 13 42 32 91 81 110 80 24 38 88 105 95 20 108 119 21 83 49 51 81 19 104 3 118 89 9 38 93 91 53 34 48 101 9 91 56 14 94 62 5 79 69 63 72 92 29 4 16 107 24 47 119 30 72 100 35 42 44 61 7 13 103 76 50 32 6 60 54 16 73 75 74 4 26 51 94 113 114 10 28 18 89 64 46 109 116 91 103 65 114 97 23 40 92 17 58 22 81 46 70 118 12 55 82 2 109 86 
50 112 63 66 103 21 120 71 1 84 17 62 68 68 47 114 30 84 106 23 102 88 120 62 91 3 45 54 87 1 7 28 10 65 44 35 76 2 71 64 119 30 81 89 6 59 49 47 100 5 95 72 5 45 85 25 106 81 113 117 3 29 23 64 106 17 90 72 56 6 93 61 63 34 62 6 85 25 103 31 5 95 117 79 101 107 15 116 107 53 81 44 75 93 118 102 53 83 103 30 63 119 54 106 93 70 120 120 87 53 87 50 61 113 97 12 35 50 27 61 
86 109 103 108 39 61 30 17 106 89 91 52 27 104 19 27 114 4 102 11 3 90 19 49 45 9 66 13 85 46 74 89 39 87 22 100 82 17 113 7 104 49 49 100 34 4 8 35 31 68 22 97 37 61 51 60 35 42 42 40 80 69 65 95 81 76 83 41 5 27 20 116 65 45 78 66 78 21 1 7 112 26 62 67 6 111 113 78 51 59 31 102 3 11 107 118 92 55 102 70 60 16 19 111 72 111 28 21 67 39 52 85 27 11 89 86 57 4 33 62 
57 97 24 27 106 43 23 100 72 10 60 77 111 9 34 83 27 108 94 85 60 98 53 73 47 44 19 73 70 84 14 55 77 25 2 54 76 18 75 10 24 58 106 70 113 7 9 89 17 88 98 77 28 39 94 41 85 37 52 60 17 75 36 67 77 17 49 118 107 64 120 79 71 86 73 48 114 115 22 28 67 52 91 109 94 103 100 83 56 31 78 77 81 39 98 69 85 79 119 87 71 113 91 83 99 108 85 7 14 54 50 7 28 71 107 105 54 88 73 78 
118 76 32 24 58 18 93 120 71 47 31 5 107 13 120 63 118 29 70 56 43 6 84 93 51 43 50 47 94 74 94 48 69 111 16 38 74 32 53 119 66 65 72 89 29 13 56 84 15 3 4 58 45 12 15 81 107 58 50 90 72 59 79 41 69 84 59 11 109 83 26 54 46 106 34 11 40 41 62 115 44 74 29 111 75 92 110 88 112 34 104 82 120 80 20 7 43 75 117 67 115 31 77 113 44 93 59 98 18 65 20 30 97 55 95 68 40 5 52 77 
42 79 75 46 39 96 109 44 34 51 74 86 13 74 48 92 40 19 33 9 111 90 10 86 71 9 78 16 58 92 21 95 56 10 55 62 24 101 13 30 88 109 98 61 58 33 38 109 71 65 71 60 19 43 67 88 102 6 22 35 101 71 94 32 14 73 120 20 61 13 74 112 14 114 48 102 118 64 42 9 120 3 33 21 73 10 62 100 89 7 17 82 111 118 6 103 78 105 94 108 48 25 115 97 103 63 65 70 30 66 73 77 109 34 7 75 39 116 66 95 
55 104 79 105 2 32 107 10 113 11 30 87 35 13 32 59 45 82 102 64 86 35 40 87 24 66 68 101 72 44 104 68 21 36 32 50 21 69 46 16 43 4 85 12 104 11 41 97 15 63 34 54 66 67 110 14 31 81 37 31 119 118 40 39 13 32 108 95 26 105 87 109 97 10 44 112 8 91 72 91 69 32 26 6 87 119 106 40 119 5 83 91 40 101 53 53 57 91 103 53 87 115 31 2 85 21 39 72 13 7 15 70 24 21 50 1 112 5 107 69 
98 78 120 84 87 36 40 58 61 100 103 92 6 54 57 93 118 101 68 110 57 30 73 83 59 73 2 112 81 119 91 91 82 6 52 105 64 5 94 26 57 76 118 12 36 95 1 24 10 21 118 19 108 113 50 86 118 119 69 50 23 116 52 60 4 47 6 63 44 7 27 77 77 47 87 91 44 34 75 120 115 103 40 7 48 4 64 58 21 103 120 116 60 108 119 14 101 47 100 44 15 85 85 111 35 49 116 119 107 1 27 72 12 18 34 94 30 96 71 4 
75 93 76 10 45 68 81 76 70 40 75 66 117 77 113 55 86 6 114 120 34 110 104 14 58 105 46 118 118 97 104 72 107 50 22 23 43 67 102 93 33 13 21 82 41 103 32 99 29 94 43 115 86 93 88 47 76 56 9 88 51 117 32 75 65 63 89 81 92 38 4 116 50 19 15 101 107 82 80 98 24 17 27 116 18 19 20 113 67 108 84 68 75 63 42 89 21 112 97 105 82 11 104 41 5 63 120 62 73 91 91 52 112 88 120 11 34 59 75 120 
97 90 56 59 112 3 36 97 46 65 32 11 112 115 17 88 85 96 27 84 83 8 98 104 97 30 59 44 70 3 88 61 52 19 60 114 114 45 116 105 96 38 47 68 16 100 95 81 56 23 12 97 77 110 88 63 25 55 113 90 37 100 28 13 120 104 96 100 65 94 98 22 7 40 102 60 78 55 108 50 108 53 100 85 24 112 9 1 62 26 114 21 53 99 3 16 72 19 32 59 102 97 116 23 97 86 83 6 76 49 80 107 12 109 61 89 46 10 1 14 
18 52 62 63 93 87 17 75 100 112 82 89 33 39 21 67 86 82 43 37 117 7 55 90 81 62 13 82 59 80 45 104 65 15 5 75 100 12 91 42 98 78 87 100 57 63 101 19 57 63 84 42 43 78 91 42 90 90 62 91 6 34 76 57 14 45 35 31 111 39 23 89 22 40 115 58 46 115 120 4 92 74 113 21 25 27 26 88 117 84 57 81 107 108 107 43 41 39 54 21 13 76 107 116 10 73 101 102 24 57 40 57 39 48 84 91 87 81 71 80 
59 1 78 67 10 93 108 15 83 28 10 7 28 7 55 105 20 81 88 67 47 32 18 112 104 49 117 1 105 84 98 72 118 111 71 1 118 62 6 73 77 48 16 66 106 57 75 4 76 36 103 80 81 103 51 12 17 30 21 97 48 101 112 84 75 30 86 9 23 8 45 99 86 28 115 31 53 70 34 84 20 100 42 86 7 9 89 101 110 71 10 116 96 55 19 100 16 46 44 30 71 80 65 2 50 23 34 88 2 109 52 102 118 25 28 80 95 13 43 28 
115 25 107 33 38 89 98 68 86 34 90 59 38 110 103 72 34 100 29 56 63 98 30 17 96 112 51 115 49 55 18 69 8 113 19 56 120 87 46 21 14 60 116 25 95 86 33 27 104 94 42 111 74 58 2 115 105 10 85 57 82 113 76 42 6 84 102 25 77 29 60 76 69 19 3 31 81 40 48 86 89 90 60 63 86 112 23 45 114 40 95 65 83 88 118 28 88 57 39 18 95 117 109 73 104 116 97 115 110 38 54 15 57 62 1 74 4 119 41 20 
36 110 29 115 89 36 119 16 115 42 39 106 95 53 61 60 32 23 11 8 85 70 37 84 81 114 67 63 62 41 23 99 87 79 66 117 52 56 12 17 68 58 116 113 86 115 43 45 68 84 65 96 64 42 58 105 114 118 26 62 106 57 73 64 63 114 9 32 73 46 49 67 54 10 96 100 52 83 75 4 11 112 88 102 15 21 16 37 112 77 57 99 76 85 71 20 62 93 8 120 47 60 76 105 57 57 87 120 68 76 77 115 80 108 12 38 58 114 7 102 
32 3 21 73 3 26 34 40 4 83 81 91 20 76 17 98 67 5 5 101 60 72 104 42 75 23 118 96 104 105 82 67 73 35 69 1 9 116 117 39 112 98 112 74 70 107 113 33 74 29 56 87 46 29 108 11 101 119 75 38 99 60 12 84 77 86 38 12 68 92 10 17 70 105 93 9 67 90 81 44 68 74 8 114 18 3 60 96 81 4 17 43 18 82 1 88 5 74 51 112 6 32 20 57 103 17 120 12 33 117 77 49 46 96 39 94 57 30 65 93 
3 78 66 104 108 76 94 39 64 49 41 57 103 110 114 89 20 59 40 11 22 82 91 110 1 57 14 52 98 7 7 2 36 91 89 27 50 104 50 41 100 69 103 82 8 3 32 5 50 45 45 111 118 38 72 74 53 52 83 9 46 49 25 28 50 99 62 33 34 29 66 103 80 82 22 54 62 86 13 23 5 96 72 111 80 76 44 52 79 62 85 100 19 9 36 102 97 110 68 39 45 113 55 18 97 45 111 75 101 111 72 84 117 46 47 104 57 89 111 58 
83 79 24 93 107 81 95 116 53 82 55 14 96 56 8 84 2 46 6 120 48 53 2 94 84 35 3 116 109 6 91 12 66 106 71 112 13 80 31 49 93 40 79 103 116 79 112 22 9 60 114 40 43 104 91 44 20 34 80 110 90 39 120 100 35 32 86 34 8 36 53 84 95 80 63 24 64 81 32 59 95 72 46 41 74 77 46 9 107 84 43 101 5 75 50 48 116 118 94 91 99 82 25 7 119 6 37 31 49 3 108 85 116 77 61 80 103 3 68 28 
103 55 5 40 11 46 51 89 78 33 46 30 23 89 68 50 48 54 17 71 96 63 39 15 55 80 105 113 63 13 19 104 74 4 67 51 55 38 9 2 51 56 63 72 88 28 79 50 65 46 6 27 17 38 80 29 11 94 50 87 98 97 15 85 22 62 75 73 120 59 8 66 49 115 70 72 97 89 96 45 55 117 115 74 21 107 82 90 88 22 56 64 87 106 68 24 14 64 103 101 96 37 89 109 86 27 41 120 62 82 48 40 86 107 81 83 105 5 93 67 
33 15 89 102 118 108 90 57 60 39 91 62 29 58 7 101 59 101 114 59 87 34 5 5 47 50 107 99 60 108 120 91 71 116 43 10 10 31 8 46 109 83 87 57 115 8 77 36 105 52 117 87 9 74 53 113 11 45 25 102 67 114 5 80 74 17 97 76 38 24 5 55 53 2 6 4 101 51 90 53 5 85 43 39 117 70 53 20 108 25 13 5 101 115 26 94 30 16 119 98 86 94 43 115 87 31 108 114 7 33 33 75 20 56 52 99 72 109 7 70 
56 108 115 17 47 7 61 100 55 64 22 111 9 107 99 100 107 115 41 52 6 76 91 51 56 70 113 91 104 16 48 88 110 5 3 39 64 82 62 88 21 120 7 24 116 28 49 88 69 27 41 18 61 106 46 73 17 119 118 69 59 78 92 105 110 93 54 30 100 75 59 71 47 33 82 100 86 45 23 2 115 92 89 25 48 83 115 16 50 88 10 85 113 79 68 117 75 100 35 120 17 117 38 89 10 20 61 115 53 80 51 90 84 101 35 23 113 11 114 23 
67 109 15 62 53 24 43 83 89 65 57 16 69 20 64 84 32 69 45 82 120 39 57 83 2 37 72 15 77 51 55 17 97 84 49 40 119 16 100 46 56 94 100 76 61 115 36 24 113 56 63 7 2 45 104 37 73 72 25 56 29 43 27 70 55 44 74 51 43 19 100 15 61 3 9 115 69 52 53 22 20 108 71 11 107 80 31 94 84 85 62 20 95 107 76 34 95 30 98 4 8 95 41 83 14 38 97 3 83 2 48 92 117 119 68 88 95 106 54 116 
5 28 100 71 67 44 84 29 15 92 56 41 49 46 58 67 4 33 64 23 5 54 33 36 52 115 106 107 76 66 45 55 105 41 41 71 14 51 11 77 93 49 51 58 55 14 60 108 63 14 76 31 5 96 95 38 77 10 39 53 14 120 15 63 119 91 16 55 33 8 13 106 10 91 111 65 3 118 98 71 44 72 46 60 49 56 39 69 81 87 10 23 84 49 110 18 81 98 21 110 16 72 84 66 49 55 74 69 85 100 115 27 104 13 116 76 14 22 108 1 
79 39 88 109 73 91 13 3 87 49 40 21 4 80 54 53 14 30 61 69 105 37 73 11 99 67 51 100 48 120 20 93 86 49 31 39 100 107 25 64 56 1 44 106 72 29 70 69 72 111 3 58 76 110 72 21 70 58 86 87 91 36 49 28 120 67 120 13 16 55 103 92 88 81 110 16 86 74 115 17 30 46 116 25 105 116 107 20 117 115 82 46 115 97 69 111 80 56 87 108 2 112 101 63 105 5 62 59 64 50 11 67 60 70 64 73 31 73 70 56 
44 81 7 42 4 66 29 75 106 105 67 32 94 76 11 36 91 38 72 115 57 72 16 52 92 68 37 58 24 97 111 22 75 103 55 71 34 108 76 34 102 75 6 90 57 84 79 36 92 34 57 120 25 53 103 70 62 55 33 73 106 45 36 13 17 43 48 68 32 66 71 10 93 73 14 102 111 10 90 52 97 38 43 63 83 68 84 3 24 54 95 83 32 112 28 90 100 68 34 18 99 65 74 45 105 100 7 119 84 71 87 36 34 43 42 109 15 109 88 118 
37 99 75 48 7 114 48 38 13 56 49 83 6 25 104 90 47 42 72 69 20 101 8 25 15 111 52 116 120 87 80 104 40 112 111 43 90 85 72 87 110 76 114 119 35 28 12 117 69 38 99 114 51 35 47 22 94 15 58 117 7 75 102 39 93 25 27 16 70 38 94 71 84 23 118 35 23 76 91 3 84 113 26 51 43 25 58 111 26 76 33 79 37 63 32 21 22 20 55 32 68 88 4 28 51 105 58 37 77 90 106 10 6 64 78 29 75 85 29 105 
108 85 57 24 2 81 68 54 10 47 114 27 59 85 71 81 71 116 37 23 94 28 23 65 111 56 48 73 75 87 86 17 99 22 76 28 89 78 120 47 5 66 49 54 108 102 98 76 22 41 23 66 7 11 2 118 77 24 15 83 65 2 12 67 60 58 22 100 32 45 59 53 75 48 112 40 11 71 27 65 87 55 93 53 18 77 41 24 63 32 103 73 38 21 88 78 114 70 56 67 83 8 71 28 52 89 2 24 18 22 56 64 30 41 71 47 1 63 96 23 
112 33 6 50 79 75 8 78 85 8 85 46 39 35 60 75 7 60 67 43 111 85 40 52 36 73 7 44 104 88 78 18 27 112 63 17 5 73 87 59 101 9 2 92 96 115 6 78 16 77 97 6 1 9 91 95 112 53 58 94 23 67 95 57 93 118 61 90 84 24 56 99 109 39 47 72 115 32 85 69 36 28 54 57 94 4 98 101 88 73 9 63 91 77 94 92 118 35 72 22 78 37 21 119 120 17 89 28 114 93 72 103 23 48 64 94 46 17 86 63 
96 53 109 110 67 114 96 102 31 94 98 36 79 80 106 2 85 47 101 58 21 43 58 17 58 44 60 9 86 95 98 60 87 105 117 89 108 92 81 86 4 54 64 114 32 100 93 81 20 64 45 72 35 27 89 36 104 50 23 51 54 26 73 12 78 49 18 28 38 86 104 70 88 46 64 109 92 23 19 48 120 74 109 35 29 108 52 47 4 111 100 100 2 56 87 47 25 13 22 9 75 89 60 105 99 89 120 109 28 115 59 42 43 31 107 87 26 29 27 82 
85 41 5 32 75 51 115 15 67 76 89 50 109 14 37 24 94 90 59 79 61 22 45 47 108 77 82 63 81 54 52 79 72 23 100 78 29 95 24 92 44 27 43 101 61 53 82 47 11 89 116 96 21 88 64 8 97 65 63 90 42 5 3 117 57 9 72 102 70 13 64 56 99 82 57 49 4 79 80 56 30 13 91 110 73 38 104 80 93 38 64 112 28 102 71 63 11 82 16 83 20 89 17 12 77 49 50 73 45 2 111 79 95 37 73 69 113 54 44 16 
2 107 88 6 71 7 46 45 26 93 74 113 30 105 44 28 3 44 48 48 79 12 91 48 28 108 77 33 7 60 25 18 31 93 6 63 113 19 34 98 78 23 74 42 103 65 82 16 86 12 62 23 36 100 15 39 17 62 46 56 76 78 83 10 88 6 31 30 9 119 97 41 24 101 12 71 95 70 87 94 115 89 94 100 117 55 75 32 9 103 87 69 11 109 31 3 26 46 9 66 7 85 14 75 83 87 50 37 72 82 28 102 63 118 9 78 75 66 58 33 
74 86 117 114 75 15 57 88 116 2 9 27 24 96 3 69 116 110 37 10 75 40 15 88 83 14 21 48 53 119 69 71 43 113 99 109 22 115 10 85 94 92 87 62 11 8 116 33 104 69 109 55 113 106 53 60 31 118 90 37 109 4 50 79 111 58 41 88 61 110 111 15 115 3 47 13 72 80 4 4 34 110 89 112 51 58 42 113 64 5 43 5 91 26 20 17 113 43 120 76 10 38 3 105 39 94 41 20 99 8 113 42 11 31 87 116 82 15 23 67 
42 35 55 87 119 52 74 105 6 80 80 96 19 38 61 66 25 70 85 34 19 6 8 111 23 118 19 114 13 76 51 63 5 39 46 113 105 106 24 111 109 70 70 41 91 107 79 54 56 67 63 62 31 92 49 81 61 66 90 28 103 78 77 91 58 39 43 86 113 15 120 67 23 43 47 43 80 104 110 68 56 51 88 44 3 78 74 85 116 62 69 17 103 77 73 102 5 4 63 65 119 1 87 27 72 38 16 106 54 104 100 74 10 56 16 97 78 60 118 41 
63 59 14 112 93 110 23 12 73 94 105 43 11 89 89 72 99 106 27 108 49 43 15 118 87 66 53 29 70 49 53 10 17 21 29 98 9 73 51 63 70 57 39 65 68 102 6 67 73 64 57 42 76 77 76 94 36 15 31 66 64 100 65 80 96 41 25 116 117 81 57 98 108 71 79 114 2 22 34 19 81 101 12 16 118 101 41 100 29 25 8 4 58 63 61 1 60 102 80 60 54 107 79 49 118 24 69 105 36 111 87 82 94 53 82 11 7 108 46 77 
59 48 30 59 80 71 23 29 29 76 78 59 31 107 49 47 95 112 76 8 65 70 36 73 84 8 25 3 29 71 3 51 62 106 10 15 72 55 9 83 7 84 72 116 108 12 39 73 96 2 36 88 17 119 67 75 26 61 8 84 83 65 80 13 34 50 87 76 6 103 35 108 120 17 39 110 79 95 15 68 118 29 114 63 90 38 86 73 15 78 1 98 37 20 105 37 34 40 26 17 9 106 75 71 14 16 6 32 70 9 83 60 102 118 97 66 35 6 73 78 
29 53 24 3 93 89 40 43 65 66 61 29 116 113 57 85 57 108 45 109 58 105 3 40 48 23 3 46 115 3 86 5 49 112 22 115 64 42 104 34 67 66 53 116 37 93 108 48 22 94 34 81 112 112 34 83 22 49 75 3 25 45 20 33 56 26 108 20 95 110 55 98 47 49 87 97 111 51 72 2 40 21 21 44 33 102 91 110 28 87 64 115 91 71 86 7 33 60 81 22 63 23 25 48 71 92 117 86 112 37 108 11 7 68 97 87 74 3 106 5 
15 101 66 12 71 57 94 33 86 4 28 56 57 89 45 19 26 104 85 10 83 16 93 47 57 60 42 54 99 85 27 97 110 3 45 98 116 19 50 5 83 22 82 55 17 117 42 114 104 60 37 93 101 114 102 104 91 75 44 25 66 115 60 80 27 13 72 115 47 12 34 80 12 44 63 63 96 15 81 38 76 6 8 10 33 15 45 80 7 78 95 70 23 81 68 90 17 62 86 94 79 12 87 78 104 11 79 1 59 29 2 59 17 57 19 92 20 46 31 20 
68 44 116 18 109 70 50 111 36 31 10 5 98 33 84 86 114 111 42 23 2 27 23 54 62 38 78 6 113 89 2 112 58 78 75 49 79 27 22 87 101 107 116 109 20 8 100 93 34 65 34 37 112 95 18 99 50 83 60 70 37 68 102 86 3 53 106 100 14 120 18 51 50 71 63 5 37 30 42 113 103 81 62 66 71 57 120 119 120 36 67 58 26 65 68 61 49 93 29 101 93 12 87 117 24 10 96 62 9 112 19 66 79 17 61 9 9 79 117 120 
113 49 68 40 107 83 76 56 107 90 72 96 101 68 56 5 106 81 87 108 69 65 94 14 81 100 12 116 32 65 54 74 53 104 17 18 102 43 17 118 89 66 31 5 40 32 10 118 79 31 15 21 24 101 47 45 113 86 63 33 94 17 113 37 25 12 98 49 99 26 100 75 26 53 107 100 1 108 48 105 31 37 85 96 69 110 96 30 59 102 50 2 3 39 14 30 56 16 1 4 103 32 12 22 75 91 69 50 47 116 49 59 108 104 12 83 74 21 55 107 
45 43 94 17 18 93 92 37 116 64 120 51 28 100 114 77 33 110 91 116 93 100 27 36 42 67 93 23 60 44 55 75 78 54 4 67 12 1 100 8 116 56 119 49 62 69 7 22 58 51 37 76 28 81 12 57 104 70 16 16 79 68 64 119 48 50 116 17 66 43 49 96 27 82 8 33 62 58 87 26 71 100 55 58 70 58 54 110 28 87 55 92 97 20 7 89 88 72 93 83 116 120 84 59 5 59 25 92 39 104 107 40 115 98 102 70 49 13 97 22 
89 40 109 98 108 109 5 99 91 55 4 119 70 112 8 99 27 96 32 9 37 45 18 39 114 11 60 110 10 25 103 71 25 44 65 55 23 100 18 46 72 61 85 91 45 117 4 24 11 10 120 103 8 116 86 24 115 56 99 53 86 32 50 13 115 38 38 38 21 39 81 94 49 41 20 80 13 94 27 83 56 47 6 25 59 114 55 19 46 100 76 7 25 73 55 52 100 35 8 55 74 13 66 68 40 77 18 42 35 101 51 13 86 43 116 83 89 114 107 74 
77 19 14 74 24 44 11 117 24 115 64 52 67 26 42 60 68 18 98 47 28 55 68 113 84 23 20 36 26 110 18 22 20 57 104 111 15 64 65 98 112 68 39 25 34 2 36 67 34 85 82 39 116 93 86 48 97 82 116 62 74 16 4 80 49 109 103 91 19 107 26 92 50 112 116 28 44 25 30 106 84 27 81 76 38 90 8 46 111 23 69 28 105 25 116 11 100 78 56 98 30 10 75 41 67 58 102 48 76 98 85 104 4 82 13 93 104 22 118 61 
58 81 12 100 25 11 1 82 111 119 52 94 15 69 53 89 94 22 34 6 22 23 97 9 63 17 82 15 116 84 112 8 47 78 61 16 12 4 107 102 20 33 111 32 32 76 57 105 3 73 52 117 45 2 40 33 52 92 60 5 88 89 68 10 13 26 85 49 34 78 113 28 10 113 57 101 109 46 80 44 89 107 47 51 101 36 84 55 2 91 6 98 6 71 76 34 71 6 54 45 93 101 20 80 23 59 1 6 10 92 14 63 107 90 14 14 56 45 116 95 
68 51 23 87 67 43 5 9 39 50 47 27 103 105 23 20 5 64 103 43 67 67 5 46 117 58 55 23 49 110 101 82 46 18 24 114 80 118 103 70 34 17 13 71 7 39 35 118 23 85 87 24 105 42 98 80 117 116 21 32 12 109 81 84 94 46 88 81 67 25 31 77 119 78 2 66 22 12 45 67 25 94 86 117 43 69 115 95 50 78 108 49 27 81 52 77 12 79 101 119 21 78 70 93 55 110 56 78 38 52 120 63 83 69 39 2 8 59 14 107 
40 67 19 15 88 105 90 60 82 72 114 118 27 85 35 26 28 64 80 106 95 107 43 88 29 118 53 74 103 20 8 98 32 38 45 47 102 57 107 57 107 106 109 79 22 77 1 109 45 75 90 83 25 44 34 28 57 119 39 3 39 63 92 10 34 11 102 75 8 94 91 116 12 34 111 120 35 63 58 57 52 113 85 117 53 9 31 33 4 78 78 52 103 37 32 113 114 80 95 84 15 53 108 70 85 77 73 111 66 30 73 33 62 92 52 11 74 69 47 39 
